…
Еще один нарушитель собирает содержимое электронной почты и отправляет в Интернет используя порт, который обычно используется для другого типа трафика. Атакующий пересылает большое количество информации используя этот порт, которое нехарактерно для других хостов, использующих этот номер порта.

Определите IP этой системы. Известно, что ее IP адрес отличается от нарушителей из предыдущих задач.

``` r
df_ishod %>% 
  select(port) %>%
  unique() %>%
  arrange(port) %>%
  collect()
```

```         
# A tibble: 47 × 1
    port
   <int>
 1    22
 2    23
 3    25
 4    26
 5    27
 6    29
 7    31
 8    34
 9    37
10    39
# ℹ 37 more rows
```

``` r
df_ishod %>% 
  group_by(port) %>%
  summarise(col = n()) %>%
  select(port, col) %>%
  arrange(desc(col))%>%
  collect()
```

```         
# A tibble: 47 × 2
    port    col
   <int>  <int>
 1    27 965064
 2    80 964250
 3   121 964242
 4    68 964088
 5    79 963603
 6    72 963545
 7    34 963435
 8    77 963423
 9    22 963383
10    96 963075
# ℹ 37 more rows
```
